%YAML 1.1
%TAG !u! tag:unity3d.com,2011:
--- !u!1 &8073102137397908678
GameObject:
  m_ObjectHideFlags: 0
  m_CorrespondingSourceObject: {fileID: 0}
  m_PrefabInstance: {fileID: 0}
  m_PrefabAsset: {fileID: 0}
  serializedVersion: 6
  m_Component:
  - component: {fileID: 8316166749328392277}
  - component: {fileID: 4741323955337267039}
  m_Layer: 0
  m_Name: ne znau
  m_TagString: Untagged
  m_Icon: {fileID: 0}
  m_NavMeshLayer: 0
  m_StaticEditorFlags: 0
  m_IsActive: 1
--- !u!4 &8316166749328392277
Transform:
  m_ObjectHideFlags: 0
  m_CorrespondingSourceObject: {fileID: 0}
  m_PrefabInstance: {fileID: 0}
  m_PrefabAsset: {fileID: 0}
  m_GameObject: {fileID: 8073102137397908678}
  m_LocalRotation: {x: 0, y: 0, z: 0, w: 1}
  m_LocalPosition: {x: 0, y: 0, z: 0}
  m_LocalScale: {x: 1, y: 1, z: 1}
  m_ConstrainProportionsScale: 0
  m_Children:
  - {fileID: 3689819935653323240}
  m_Father: {fileID: 0}
  m_RootOrder: 0
  m_LocalEulerAnglesHint: {x: 0, y: 0, z: 0}
--- !u!156049354 &4741323955337267039
Grid:
  m_ObjectHideFlags: 0
  m_CorrespondingSourceObject: {fileID: 0}
  m_PrefabInstance: {fileID: 0}
  m_PrefabAsset: {fileID: 0}
  m_GameObject: {fileID: 8073102137397908678}
  m_Enabled: 1
  m_CellSize: {x: 1, y: 1, z: 0}
  m_CellGap: {x: 0, y: 0, z: 0}
  m_CellLayout: 0
  m_CellSwizzle: 0
--- !u!1 &9123588810101565633
GameObject:
  m_ObjectHideFlags: 0
  m_CorrespondingSourceObject: {fileID: 0}
  m_PrefabInstance: {fileID: 0}
  m_PrefabAsset: {fileID: 0}
  serializedVersion: 6
  m_Component:
  - component: {fileID: 3689819935653323240}
  - component: {fileID: 49562652352755471}
  - component: {fileID: 3044669732703975548}
  m_Layer: 0
  m_Name: Layer1
  m_TagString: Untagged
  m_Icon: {fileID: 0}
  m_NavMeshLayer: 0
  m_StaticEditorFlags: 0
  m_IsActive: 1
--- !u!4 &3689819935653323240
Transform:
  m_ObjectHideFlags: 0
  m_CorrespondingSourceObject: {fileID: 0}
  m_PrefabInstance: {fileID: 0}
  m_PrefabAsset: {fileID: 0}
  m_GameObject: {fileID: 9123588810101565633}
  m_LocalRotation: {x: -0, y: -0, z: -0, w: 1}
  m_LocalPosition: {x: 0, y: 0, z: 0}
  m_LocalScale: {x: 1, y: 1, z: 1}
  m_ConstrainProportionsScale: 0
  m_Children: []
  m_Father: {fileID: 8316166749328392277}
  m_RootOrder: 0
  m_LocalEulerAnglesHint: {x: 0, y: 0, z: 0}
--- !u!1839735485 &49562652352755471
Tilemap:
  m_ObjectHideFlags: 0
  m_CorrespondingSourceObject: {fileID: 0}
  m_PrefabInstance: {fileID: 0}
  m_PrefabAsset: {fileID: 0}
  m_GameObject: {fileID: 9123588810101565633}
  m_Enabled: 1
  m_Tiles:
  - first: {x: -1, y: -4, z: 0}
    second:
      serializedVersion: 2
      m_TileIndex: 30
      m_TileSpriteIndex: 30
      m_TileMatrixIndex: 0
      m_TileColorIndex: 0
      m_TileObjectToInstantiateIndex: 65535
      dummyAlignment: 0
      m_AllTileFlags: 1073741825
  - first: {x: 0, y: -4, z: 0}
    second:
      serializedVersion: 2
      m_TileIndex: 31
      m_TileSpriteIndex: 31
      m_TileMatrixIndex: 0
      m_TileColorIndex: 0
      m_TileObjectToInstantiateIndex: 65535
      dummyAlignment: 0
      m_AllTileFlags: 1073741825
  - first: {x: 1, y: -4, z: 0}
    second:
      serializedVersion: 2
      m_TileIndex: 32
      m_TileSpriteIndex: 32
      m_TileMatrixIndex: 0
      m_TileColorIndex: 0
      m_TileObjectToInstantiateIndex: 65535
      dummyAlignment: 0
      m_AllTileFlags: 1073741825
  - first: {x: 2, y: -4, z: 0}
    second:
      serializedVersion: 2
      m_TileIndex: 33
      m_TileSpriteIndex: 33
      m_TileMatrixIndex: 0
      m_TileColorIndex: 0
      m_TileObjectToInstantiateIndex: 65535
      dummyAlignment: 0
      m_AllTileFlags: 1073741825
  - first: {x: 3, y: -4, z: 0}
    second:
      serializedVersion: 2
      m_TileIndex: 34
      m_TileSpriteIndex: 34
      m_TileMatrixIndex: 0
      m_TileColorIndex: 0
      m_TileObjectToInstantiateIndex: 65535
      dummyAlignment: 0
      m_AllTileFlags: 1073741825
  - first: {x: 4, y: -4, z: 0}
    second:
      serializedVersion: 2
      m_TileIndex: 35
      m_TileSpriteIndex: 35
      m_TileMatrixIndex: 0
      m_TileColorIndex: 0
      m_TileObjectToInstantiateIndex: 65535
      dummyAlignment: 0
      m_AllTileFlags: 1073741825
  - first: {x: -1, y: -3, z: 0}
    second:
      serializedVersion: 2
      m_TileIndex: 24
      m_TileSpriteIndex: 24
      m_TileMatrixIndex: 0
      m_TileColorIndex: 0
      m_TileObjectToInstantiateIndex: 65535
      dummyAlignment: 0
      m_AllTileFlags: 1073741825
  - first: {x: 0, y: -3, z: 0}
    second:
      serializedVersion: 2
      m_TileIndex: 25
      m_TileSpriteIndex: 25
      m_TileMatrixIndex: 0
      m_TileColorIndex: 0
      m_TileObjectToInstantiateIndex: 65535
      dummyAlignment: 0
      m_AllTileFlags: 1073741825
  - first: {x: 1, y: -3, z: 0}
    second:
      serializedVersion: 2
      m_TileIndex: 26
      m_TileSpriteIndex: 26
      m_TileMatrixIndex: 0
      m_TileColorIndex: 0
      m_TileObjectToInstantiateIndex: 65535
      dummyAlignment: 0
      m_AllTileFlags: 1073741825
  - first: {x: 2, y: -3, z: 0}
    second:
      serializedVersion: 2
      m_TileIndex: 27
      m_TileSpriteIndex: 27
      m_TileMatrixIndex: 0
      m_TileColorIndex: 0
      m_TileObjectToInstantiateIndex: 65535
      dummyAlignment: 0
      m_AllTileFlags: 1073741825
  - first: {x: 3, y: -3, z: 0}
    second:
      serializedVersion: 2
      m_TileIndex: 28
      m_TileSpriteIndex: 28
      m_TileMatrixIndex: 0
      m_TileColorIndex: 0
      m_TileObjectToInstantiateIndex: 65535
      dummyAlignment: 0
      m_AllTileFlags: 1073741825
  - first: {x: 4, y: -3, z: 0}
    second:
      serializedVersion: 2
      m_TileIndex: 29
      m_TileSpriteIndex: 29
      m_TileMatrixIndex: 0
      m_TileColorIndex: 0
      m_TileObjectToInstantiateIndex: 65535
      dummyAlignment: 0
      m_AllTileFlags: 1073741825
  - first: {x: -1, y: -2, z: 0}
    second:
      serializedVersion: 2
      m_TileIndex: 18
      m_TileSpriteIndex: 18
      m_TileMatrixIndex: 0
      m_TileColorIndex: 0
      m_TileObjectToInstantiateIndex: 65535
      dummyAlignment: 0
      m_AllTileFlags: 1073741825
  - first: {x: 0, y: -2, z: 0}
    second:
      serializedVersion: 2
      m_TileIndex: 19
      m_TileSpriteIndex: 19
      m_TileMatrixIndex: 0
      m_TileColorIndex: 0
      m_TileObjectToInstantiateIndex: 65535
      dummyAlignment: 0
      m_AllTileFlags: 1073741825
  - first: {x: 1, y: -2, z: 0}
    second:
      serializedVersion: 2
      m_TileIndex: 20
      m_TileSpriteIndex: 20
      m_TileMatrixIndex: 0
      m_TileColorIndex: 0
      m_TileObjectToInstantiateIndex: 65535
      dummyAlignment: 0
      m_AllTileFlags: 1073741825
  - first: {x: 2, y: -2, z: 0}
    second:
      serializedVersion: 2
      m_TileIndex: 21
      m_TileSpriteIndex: 21
      m_TileMatrixIndex: 0
      m_TileColorIndex: 0
      m_TileObjectToInstantiateIndex: 65535
      dummyAlignment: 0
      m_AllTileFlags: 1073741825
  - first: {x: 3, y: -2, z: 0}
    second:
      serializedVersion: 2
      m_TileIndex: 22
      m_TileSpriteIndex: 22
      m_TileMatrixIndex: 0
      m_TileColorIndex: 0
      m_TileObjectToInstantiateIndex: 65535
      dummyAlignment: 0
      m_AllTileFlags: 1073741825
  - first: {x: 4, y: -2, z: 0}
    second:
      serializedVersion: 2
      m_TileIndex: 23
      m_TileSpriteIndex: 23
      m_TileMatrixIndex: 0
      m_TileColorIndex: 0
      m_TileObjectToInstantiateIndex: 65535
      dummyAlignment: 0
      m_AllTileFlags: 1073741825
  - first: {x: -1, y: -1, z: 0}
    second:
      serializedVersion: 2
      m_TileIndex: 12
      m_TileSpriteIndex: 12
      m_TileMatrixIndex: 0
      m_TileColorIndex: 0
      m_TileObjectToInstantiateIndex: 65535
      dummyAlignment: 0
      m_AllTileFlags: 1073741825
  - first: {x: 0, y: -1, z: 0}
    second:
      serializedVersion: 2
      m_TileIndex: 13
      m_TileSpriteIndex: 13
      m_TileMatrixIndex: 0
      m_TileColorIndex: 0
      m_TileObjectToInstantiateIndex: 65535
      dummyAlignment: 0
      m_AllTileFlags: 1073741825
  - first: {x: 1, y: -1, z: 0}
    second:
      serializedVersion: 2
      m_TileIndex: 14
      m_TileSpriteIndex: 14
      m_TileMatrixIndex: 0
      m_TileColorIndex: 0
      m_TileObjectToInstantiateIndex: 65535
      dummyAlignment: 0
      m_AllTileFlags: 1073741825
  - first: {x: 2, y: -1, z: 0}
    second:
      serializedVersion: 2
      m_TileIndex: 15
      m_TileSpriteIndex: 15
      m_TileMatrixIndex: 0
      m_TileColorIndex: 0
      m_TileObjectToInstantiateIndex: 65535
      dummyAlignment: 0
      m_AllTileFlags: 1073741825
  - first: {x: 3, y: -1, z: 0}
    second:
      serializedVersion: 2
      m_TileIndex: 16
      m_TileSpriteIndex: 16
      m_TileMatrixIndex: 0
      m_TileColorIndex: 0
      m_TileObjectToInstantiateIndex: 65535
      dummyAlignment: 0
      m_AllTileFlags: 1073741825
  - first: {x: 4, y: -1, z: 0}
    second:
      serializedVersion: 2
      m_TileIndex: 17
      m_TileSpriteIndex: 17
      m_TileMatrixIndex: 0
      m_TileColorIndex: 0
      m_TileObjectToInstantiateIndex: 65535
      dummyAlignment: 0
      m_AllTileFlags: 1073741825
  - first: {x: -1, y: 0, z: 0}
    second:
      serializedVersion: 2
      m_TileIndex: 6
      m_TileSpriteIndex: 6
      m_TileMatrixIndex: 0
      m_TileColorIndex: 0
      m_TileObjectToInstantiateIndex: 65535
      dummyAlignment: 0
      m_AllTileFlags: 1073741825
  - first: {x: 0, y: 0, z: 0}
    second:
      serializedVersion: 2
      m_TileIndex: 7
      m_TileSpriteIndex: 7
      m_TileMatrixIndex: 0
      m_TileColorIndex: 0
      m_TileObjectToInstantiateIndex: 65535
      dummyAlignment: 0
      m_AllTileFlags: 1073741825
  - first: {x: 1, y: 0, z: 0}
    second:
      serializedVersion: 2
      m_TileIndex: 8
      m_TileSpriteIndex: 8
      m_TileMatrixIndex: 0
      m_TileColorIndex: 0
      m_TileObjectToInstantiateIndex: 65535
      dummyAlignment: 0
      m_AllTileFlags: 1073741825
  - first: {x: 2, y: 0, z: 0}
    second:
      serializedVersion: 2
      m_TileIndex: 9
      m_TileSpriteIndex: 9
      m_TileMatrixIndex: 0
      m_TileColorIndex: 0
      m_TileObjectToInstantiateIndex: 65535
      dummyAlignment: 0
      m_AllTileFlags: 1073741825
  - first: {x: 3, y: 0, z: 0}
    second:
      serializedVersion: 2
      m_TileIndex: 10
      m_TileSpriteIndex: 10
      m_TileMatrixIndex: 0
      m_TileColorIndex: 0
      m_TileObjectToInstantiateIndex: 65535
      dummyAlignment: 0
      m_AllTileFlags: 1073741825
  - first: {x: 4, y: 0, z: 0}
    second:
      serializedVersion: 2
      m_TileIndex: 11
      m_TileSpriteIndex: 11
      m_TileMatrixIndex: 0
      m_TileColorIndex: 0
      m_TileObjectToInstantiateIndex: 65535
      dummyAlignment: 0
      m_AllTileFlags: 1073741825
  - first: {x: -1, y: 1, z: 0}
    second:
      serializedVersion: 2
      m_TileIndex: 0
      m_TileSpriteIndex: 0
      m_TileMatrixIndex: 0
      m_TileColorIndex: 0
      m_TileObjectToInstantiateIndex: 65535
      dummyAlignment: 0
      m_AllTileFlags: 1073741825
  - first: {x: 0, y: 1, z: 0}
    second:
      serializedVersion: 2
      m_TileIndex: 1
      m_TileSpriteIndex: 1
      m_TileMatrixIndex: 0
      m_TileColorIndex: 0
      m_TileObjectToInstantiateIndex: 65535
      dummyAlignment: 0
      m_AllTileFlags: 1073741825
  - first: {x: 1, y: 1, z: 0}
    second:
      serializedVersion: 2
      m_TileIndex: 2
      m_TileSpriteIndex: 2
      m_TileMatrixIndex: 0
      m_TileColorIndex: 0
      m_TileObjectToInstantiateIndex: 65535
      dummyAlignment: 0
      m_AllTileFlags: 1073741825
  - first: {x: 2, y: 1, z: 0}
    second:
      serializedVersion: 2
      m_TileIndex: 3
      m_TileSpriteIndex: 3
      m_TileMatrixIndex: 0
      m_TileColorIndex: 0
      m_TileObjectToInstantiateIndex: 65535
      dummyAlignment: 0
      m_AllTileFlags: 1073741825
  - first: {x: 3, y: 1, z: 0}
    second:
      serializedVersion: 2
      m_TileIndex: 4
      m_TileSpriteIndex: 4
      m_TileMatrixIndex: 0
      m_TileColorIndex: 0
      m_TileObjectToInstantiateIndex: 65535
      dummyAlignment: 0
      m_AllTileFlags: 1073741825
  - first: {x: 4, y: 1, z: 0}
    second:
      serializedVersion: 2
      m_TileIndex: 5
      m_TileSpriteIndex: 5
      m_TileMatrixIndex: 0
      m_TileColorIndex: 0
      m_TileObjectToInstantiateIndex: 65535
      dummyAlignment: 0
      m_AllTileFlags: 1073741825
  - first: {x: -1, y: 2, z: 0}
    second:
      serializedVersion: 2
      m_TileIndex: 36
      m_TileSpriteIndex: 36
      m_TileMatrixIndex: 0
      m_TileColorIndex: 0
      m_TileObjectToInstantiateIndex: 65535
      dummyAlignment: 0
      m_AllTileFlags: 1073741825
  m_AnimatedTiles: {}
  m_TileAssetArray:
  - m_RefCount: 1
    m_Data: {fileID: 11400000, guid: 519d6eb3916f46c40acb64362401f3dc, type: 2}
  - m_RefCount: 1
    m_Data: {fileID: 11400000, guid: 66cb519752e28894aabd9f8b4e68ca9b, type: 2}
  - m_RefCount: 1
    m_Data: {fileID: 11400000, guid: 1801fd1847ca62441886ff26a5835a70, type: 2}
  - m_RefCount: 1
    m_Data: {fileID: 11400000, guid: 3342383448f3f7948bf08afe5ba07ff3, type: 2}
  - m_RefCount: 1
    m_Data: {fileID: 11400000, guid: fe62fc32331f33143a9fcaca47d48110, type: 2}
  - m_RefCount: 1
    m_Data: {fileID: 11400000, guid: 1e2df01898f013544b2b7e39f5178807, type: 2}
  - m_RefCount: 1
    m_Data: {fileID: 11400000, guid: 85ce7a6804c39f7428df54ebb42f3706, type: 2}
  - m_RefCount: 1
    m_Data: {fileID: 11400000, guid: 01dfd9a35ffd51d49a116760e2010075, type: 2}
  - m_RefCount: 1
    m_Data: {fileID: 11400000, guid: 41587481371e58d47b276170c3a6b6e7, type: 2}
  - m_RefCount: 1
    m_Data: {fileID: 11400000, guid: 7816504683e216d449023deca9656dea, type: 2}
  - m_RefCount: 1
    m_Data: {fileID: 11400000, guid: 1b13440589240954ead06094b2162ecd, type: 2}
  - m_RefCount: 1
    m_Data: {fileID: 11400000, guid: 7d94f33cb6d29d9428b196927b54f407, type: 2}
  - m_RefCount: 1
    m_Data: {fileID: 11400000, guid: 5ac34114d3878d348a0bef1d857d99fe, type: 2}
  - m_RefCount: 1
    m_Data: {fileID: 11400000, guid: b5e780abdaedd284593a0e6e48e316af, type: 2}
  - m_RefCount: 1
    m_Data: {fileID: 11400000, guid: ae389988c5d8b3b44994e2153066a9f3, type: 2}
  - m_RefCount: 1
    m_Data: {fileID: 11400000, guid: 1e85dd5e9a6297247aeda4d8d0750f80, type: 2}
  - m_RefCount: 1
    m_Data: {fileID: 11400000, guid: 97d49ef2db5925a408f2cf9301e1fdf0, type: 2}
  - m_RefCount: 1
    m_Data: {fileID: 11400000, guid: c1e361727d9748946ad1172a84172386, type: 2}
  - m_RefCount: 1
    m_Data: {fileID: 11400000, guid: 16b132e1acff7dc40978f899e8253982, type: 2}
  - m_RefCount: 1
    m_Data: {fileID: 11400000, guid: 0f18a6a1a090e0745ba3f47dbdb2a40f, type: 2}
  - m_RefCount: 1
    m_Data: {fileID: 11400000, guid: 0c7916fd9830cfb41bdedd8166b07224, type: 2}
  - m_RefCount: 1
    m_Data: {fileID: 11400000, guid: 8a301c9f20b5d1c40bcb4d47c68a5220, type: 2}
  - m_RefCount: 1
    m_Data: {fileID: 11400000, guid: 37ab404b671fa854e8ec3715a14b0fba, type: 2}
  - m_RefCount: 1
    m_Data: {fileID: 11400000, guid: f13c4e24edee41b4da62da5206e27499, type: 2}
  - m_RefCount: 1
    m_Data: {fileID: 11400000, guid: fc693eb048717fa42a3b6c638c5a9312, type: 2}
  - m_RefCount: 1
    m_Data: {fileID: 11400000, guid: 49cae49eb4b7e9d4397e09d9a5047332, type: 2}
  - m_RefCount: 1
    m_Data: {fileID: 11400000, guid: e4afa0670a3b7e041b419f3d5e6b8b96, type: 2}
  - m_RefCount: 1
    m_Data: {fileID: 11400000, guid: 96a50dcf67dcbae49afd1f3073cc9086, type: 2}
  - m_RefCount: 1
    m_Data: {fileID: 11400000, guid: 640af9e6475c052459bc734eede5b079, type: 2}
  - m_RefCount: 1
    m_Data: {fileID: 11400000, guid: f7eb0d602445b4949b6e79eb6be5c5b5, type: 2}
  - m_RefCount: 1
    m_Data: {fileID: 11400000, guid: 0e5f08f03e30735458531e62accabcb1, type: 2}
  - m_RefCount: 1
    m_Data: {fileID: 11400000, guid: 13992105896885b4dbb655b0a88bf89f, type: 2}
  - m_RefCount: 1
    m_Data: {fileID: 11400000, guid: bdfc5c157eb61874db0751ee93d1b913, type: 2}
  - m_RefCount: 1
    m_Data: {fileID: 11400000, guid: 5bb9152715e58c84f9c02deb3524bdf9, type: 2}
  - m_RefCount: 1
    m_Data: {fileID: 11400000, guid: ba6700f6a4da9e040a1e73114eb13977, type: 2}
  - m_RefCount: 1
    m_Data: {fileID: 11400000, guid: 84b400754a210d042a8f90a45e62cb39, type: 2}
  - m_RefCount: 1
    m_Data: {fileID: 11400000, guid: bd247b4cecce4bd4da8fe2ab8f9819fc, type: 2}
  m_TileSpriteArray:
  - m_RefCount: 1
    m_Data: {fileID: -507209164, guid: b440fc36f617b15418e953638bbc8c82, type: 3}
  - m_RefCount: 1
    m_Data: {fileID: 709496187, guid: b440fc36f617b15418e953638bbc8c82, type: 3}
  - m_RefCount: 1
    m_Data: {fileID: -614313170, guid: b440fc36f617b15418e953638bbc8c82, type: 3}
  - m_RefCount: 1
    m_Data: {fileID: 1682403656, guid: b440fc36f617b15418e953638bbc8c82, type: 3}
  - m_RefCount: 1
    m_Data: {fileID: -1254341193, guid: b440fc36f617b15418e953638bbc8c82, type: 3}
  - m_RefCount: 1
    m_Data: {fileID: 1254169389, guid: b440fc36f617b15418e953638bbc8c82, type: 3}
  - m_RefCount: 1
    m_Data: {fileID: -1545150021, guid: b440fc36f617b15418e953638bbc8c82, type: 3}
  - m_RefCount: 1
    m_Data: {fileID: -906360252, guid: b440fc36f617b15418e953638bbc8c82, type: 3}
  - m_RefCount: 1
    m_Data: {fileID: 1614579230, guid: b440fc36f617b15418e953638bbc8c82, type: 3}
  - m_RefCount: 1
    m_Data: {fileID: -427329389, guid: b440fc36f617b15418e953638bbc8c82, type: 3}
  - m_RefCount: 1
    m_Data: {fileID: -731204079, guid: b440fc36f617b15418e953638bbc8c82, type: 3}
  - m_RefCount: 1
    m_Data: {fileID: -997512913, guid: b440fc36f617b15418e953638bbc8c82, type: 3}
  - m_RefCount: 1
    m_Data: {fileID: 1519300829, guid: b440fc36f617b15418e953638bbc8c82, type: 3}
  - m_RefCount: 1
    m_Data: {fileID: -607493778, guid: b440fc36f617b15418e953638bbc8c82, type: 3}
  - m_RefCount: 1
    m_Data: {fileID: 748975789, guid: b440fc36f617b15418e953638bbc8c82, type: 3}
  - m_RefCount: 1
    m_Data: {fileID: -441912020, guid: b440fc36f617b15418e953638bbc8c82, type: 3}
  - m_RefCount: 1
    m_Data: {fileID: 1153109504, guid: b440fc36f617b15418e953638bbc8c82, type: 3}
  - m_RefCount: 1
    m_Data: {fileID: -1044486449, guid: b440fc36f617b15418e953638bbc8c82, type: 3}
  - m_RefCount: 1
    m_Data: {fileID: 7248478, guid: b440fc36f617b15418e953638bbc8c82, type: 3}
  - m_RefCount: 1
    m_Data: {fileID: -837234127, guid: b440fc36f617b15418e953638bbc8c82, type: 3}
  - m_RefCount: 1
    m_Data: {fileID: -370296405, guid: b440fc36f617b15418e953638bbc8c82, type: 3}
  - m_RefCount: 1
    m_Data: {fileID: 524890039, guid: b440fc36f617b15418e953638bbc8c82, type: 3}
  - m_RefCount: 1
    m_Data: {fileID: -45068426, guid: b440fc36f617b15418e953638bbc8c82, type: 3}
  - m_RefCount: 1
    m_Data: {fileID: -1103809533, guid: b440fc36f617b15418e953638bbc8c82, type: 3}
  - m_RefCount: 1
    m_Data: {fileID: -1598126758, guid: b440fc36f617b15418e953638bbc8c82, type: 3}
  - m_RefCount: 1
    m_Data: {fileID: 654940967, guid: b440fc36f617b15418e953638bbc8c82, type: 3}
  - m_RefCount: 1
    m_Data: {fileID: -177836158, guid: b440fc36f617b15418e953638bbc8c82, type: 3}
  - m_RefCount: 1
    m_Data: {fileID: 97572584, guid: b440fc36f617b15418e953638bbc8c82, type: 3}
  - m_RefCount: 1
    m_Data: {fileID: 1291556896, guid: b440fc36f617b15418e953638bbc8c82, type: 3}
  - m_RefCount: 1
    m_Data: {fileID: -1644904153, guid: b440fc36f617b15418e953638bbc8c82, type: 3}
  - m_RefCount: 1
    m_Data: {fileID: 939278282, guid: b440fc36f617b15418e953638bbc8c82, type: 3}
  - m_RefCount: 1
    m_Data: {fileID: 46426114, guid: b440fc36f617b15418e953638bbc8c82, type: 3}
  - m_RefCount: 1
    m_Data: {fileID: -1083457094, guid: b440fc36f617b15418e953638bbc8c82, type: 3}
  - m_RefCount: 1
    m_Data: {fileID: -1901142755, guid: b440fc36f617b15418e953638bbc8c82, type: 3}
  - m_RefCount: 1
    m_Data: {fileID: 72072869, guid: b440fc36f617b15418e953638bbc8c82, type: 3}
  - m_RefCount: 1
    m_Data: {fileID: -1216435406, guid: b440fc36f617b15418e953638bbc8c82, type: 3}
  - m_RefCount: 1
    m_Data: {fileID: 21300000, guid: 9ca11c9bd4a1c2940af7d22a31b9e996, type: 3}
  m_TileMatrixArray:
  - m_RefCount: 37
    m_Data:
      e00: 1
      e01: 0
      e02: 0
      e03: 0
      e10: 0
      e11: 1
      e12: 0
      e13: 0
      e20: 0
      e21: 0
      e22: 1
      e23: 0
      e30: 0
      e31: 0
      e32: 0
      e33: 1
  m_TileColorArray:
  - m_RefCount: 37
    m_Data: {r: 1, g: 1, b: 1, a: 1}
  m_TileObjectToInstantiateArray: []
  m_AnimationFrameRate: 1
  m_Color: {r: 1, g: 1, b: 1, a: 1}
  m_Origin: {x: -1, y: -4, z: 0}
  m_Size: {x: 6, y: 7, z: 1}
  m_TileAnchor: {x: 0.5, y: 0.5, z: 0}
  m_TileOrientation: 0
  m_TileOrientationMatrix:
    e00: 1
    e01: 0
    e02: 0
    e03: 0
    e10: 0
    e11: 1
    e12: 0
    e13: 0
    e20: 0
    e21: 0
    e22: 1
    e23: 0
    e30: 0
    e31: 0
    e32: 0
    e33: 1
--- !u!483693784 &3044669732703975548
TilemapRenderer:
  m_ObjectHideFlags: 0
  m_CorrespondingSourceObject: {fileID: 0}
  m_PrefabInstance: {fileID: 0}
  m_PrefabAsset: {fileID: 0}
  m_GameObject: {fileID: 9123588810101565633}
  m_Enabled: 1
  m_CastShadows: 0
  m_ReceiveShadows: 0
  m_DynamicOccludee: 0
  m_StaticShadowCaster: 0
  m_MotionVectors: 1
  m_LightProbeUsage: 0
  m_ReflectionProbeUsage: 0
  m_RayTracingMode: 0
  m_RayTraceProcedural: 0
  m_RenderingLayerMask: 1
  m_RendererPriority: 0
  m_Materials:
  - {fileID: 10754, guid: 0000000000000000f000000000000000, type: 0}
  m_StaticBatchInfo:
    firstSubMesh: 0
    subMeshCount: 0
  m_StaticBatchRoot: {fileID: 0}
  m_ProbeAnchor: {fileID: 0}
  m_LightProbeVolumeOverride: {fileID: 0}
  m_ScaleInLightmap: 1
  m_ReceiveGI: 1
  m_PreserveUVs: 0
  m_IgnoreNormalsForChartDetection: 0
  m_ImportantGI: 0
  m_StitchLightmapSeams: 1
  m_SelectedEditorRenderState: 0
  m_MinimumChartSize: 4
  m_AutoUVMaxDistance: 0.5
  m_AutoUVMaxAngle: 89
  m_LightmapParameters: {fileID: 0}
  m_SortingLayerID: 0
  m_SortingLayer: 0
  m_SortingOrder: 0
  m_ChunkSize: {x: 32, y: 32, z: 32}
  m_ChunkCullingBounds: {x: 0, y: 0, z: 0}
  m_MaxChunkCount: 16
  m_MaxFrameAge: 16
  m_SortOrder: 0
  m_Mode: 0
  m_DetectChunkCullingBounds: 0
  m_MaskInteraction: 0
--- !u!114 &4498036910253333063
MonoBehaviour:
  m_ObjectHideFlags: 0
  m_CorrespondingSourceObject: {fileID: 0}
  m_PrefabInstance: {fileID: 0}
  m_PrefabAsset: {fileID: 0}
  m_GameObject: {fileID: 0}
  m_Enabled: 1
  m_EditorHideFlags: 0
  m_Script: {fileID: 12395, guid: 0000000000000000e000000000000000, type: 0}
  m_Name: Palette Settings
  m_EditorClassIdentifier: 
  cellSizing: 0
  m_TransparencySortMode: 0
  m_TransparencySortAxis: {x: 0, y: 0, z: 1}
